<?xml version="1.0" encoding="utf-8"?>
<!-- Generator: Adobe Illustrator 20.0.0, SVG Export Plug-In . SVG Version: 6.00 Build 0)  -->
<!DOCTYPE svg PUBLIC "-//W3C//DTD SVG 1.1//EN" "http://www.w3.org/Graphics/SVG/1.1/DTD/svg11.dtd" [
	<!ENTITY st0 "fill:#A1A1A2;">
]>
<svg version="1.1" id="Layer_1" xmlns="http://www.w3.org/2000/svg" xmlns:xlink="http://www.w3.org/1999/xlink" x="0px" y="0px"
	 viewBox="0 0 46 46" style="enable-background:new 0 0 46 46;" xml:space="preserve">
<g id="Layer_2">
</g>
<g id="Layer_1_1_" xmlns:sketch="http://www.bohemiancoding.com/sketch/ns">
	<g>
		<path style="&st0;" d="M41,6h-5.08C35.432,2.614,32.519,0,29,0c-3.859,0-7,3.141-7,7s3.141,7,7,7c3.519,0,6.432-2.614,6.92-6H41
			c0.552,0,1,0.404,1,0.9v34.2c0,0.496-0.448,0.9-1,0.9H5c-0.552,0-1-0.404-1-0.9V8.9C4,8.404,4.448,8,5,8h9.185
			c0.553,0,1-0.447,1-1s-0.447-1-1-1H5C3.346,6,2,7.301,2,8.9v34.2C2,44.7,3.346,46,5,46h36c1.654,0,3-1.301,3-2.9V8.9
			C44,7.301,42.654,6,41,6z M29,12c-2.757,0-5-2.243-5-5s2.243-5,5-5s5,2.243,5,5S31.757,12,29,12z"/>
		<path style="&st0;" d="M13.519,35.347c0.195,0.195,0.451,0.293,0.707,0.293s0.512-0.098,0.707-0.293l8.165-8.165
			c0.391-0.391,0.391-1.023,0-1.414l-8.165-8.166c-0.391-0.391-1.023-0.391-1.414,0s-0.391,1.023,0,1.414l7.458,7.459l-7.458,7.458
			C13.128,34.323,13.128,34.956,13.519,35.347z"/>
		<path style="&st0;" d="M31.774,36c0.553,0,1-0.447,1-1s-0.447-1-1-1h-6c-0.553,0-1,0.447-1,1s0.447,1,1,1H31.774z"/>
	</g>
</g>
<g id="Layer_3">
</g>
</svg>
