<?xml version="1.0" encoding="utf-8"?>
<!-- Generator: Adobe Illustrator 20.0.0, SVG Export Plug-In . SVG Version: 6.00 Build 0)  -->
<!DOCTYPE svg PUBLIC "-//W3C//DTD SVG 1.1//EN" "http://www.w3.org/Graphics/SVG/1.1/DTD/svg11.dtd" [
	<!ENTITY st0 "fill:#E14329;">
]>
<svg version="1.1" id="Layer_1" xmlns="http://www.w3.org/2000/svg" xmlns:xlink="http://www.w3.org/1999/xlink" x="0px" y="0px"
	 viewBox="0 0 76 76" style="enable-background:new 0 0 76 76;" xml:space="preserve">
<g id="Layer_2">
</g>
<g id="Layer_1_1_" xmlns:sketch="http://www.bohemiancoding.com/sketch/ns">
	<path style="&st0;" d="M62.435,54.765L52.523,43.67c0.315-3.881,0.481-7.241,0.508-10.271
		c-0.029-13.871-3.789-23.052-13.413-32.746c-0.855-0.859-2.411-0.828-3.294,0.059c-7.594,7.65-11.139,13.934-12.575,22.3
		c-1.776,0.062-3.437,0.776-4.699,2.039C17.729,26.372,17,28.13,17,30s0.729,3.628,2.051,4.949C20.372,36.271,22.13,37,24,37
		s3.628-0.729,4.949-2.051C30.271,33.628,31,31.87,31,30c0-1.869-0.729-3.627-2.051-4.949c-0.9-0.9-2.004-1.517-3.205-1.824
		c1.373-7.859,4.764-13.818,11.999-21.106c0.128-0.13,0.356-0.158,0.456-0.059c9.207,9.274,12.805,18.062,12.832,31.33
		c-0.026,3.079-0.202,6.527-0.536,10.54c-0.023,0.273,0.067,0.545,0.25,0.749L60.911,56.06c0.062,0.076,0.109,0.23,0.093,0.32
		l-4.547,17.407c-0.004,0.015-0.009,0.036-0.079,0.106c-0.062,0.063-0.155,0.1-0.2,0.106l-3.577,0.002
		c-0.144-0.009-0.265-0.077-0.309-0.153L46.867,63.52c-0.173-0.329-0.515-0.535-0.886-0.535H30.019
		c-0.371,0-0.713,0.206-0.886,0.535l-5.407,10.303l-0.069,0.072C23.587,73.965,23.492,74,23.458,74l-3.588,0.001
		c-0.179-0.009-0.304-0.123-0.33-0.227l-4.531-17.338c-0.029-0.146,0.019-0.301,0.049-0.34l10.197-11.415
		c0.367-0.412,0.332-1.044-0.08-1.412c-0.411-0.366-1.042-0.333-1.412,0.08L13.534,54.802c-0.448,0.554-0.63,1.312-0.474,2.084
		l4.544,17.396c0.253,0.963,1.146,1.669,2.218,1.719h3.636c0.581,0,1.187-0.261,1.615-0.693c0.114-0.114,0.286-0.286,0.406-0.528
		l5.144-9.793h14.754l5.16,9.822c0.396,0.697,1.124,1.143,2.005,1.192l3.712-0.003c0.604-0.046,1.137-0.285,1.544-0.694
		c0.313-0.316,0.504-0.646,0.598-1.022l4.557-17.451C63.096,56.113,62.914,55.355,62.435,54.765z M29,30
		c0,1.335-0.521,2.591-1.465,3.535S25.335,35,24,35s-2.591-0.521-3.535-1.465S19,31.335,19,30s0.521-2.591,1.465-3.535
		S22.665,25,24,25s2.591,0.521,3.535,1.465S29,28.665,29,30z"/>
</g>
<g id="Layer_3">
</g>
</svg>
